[gd_scene load_steps=7 format=2]

[ext_resource path="res://Scripts/Enemy.gd" type="Script" id=1]
[ext_resource path="res://Demo/character.png" type="Texture" id=2]

[sub_resource type="Animation" id=1]
resource_name = "bump"
length = 0.25
step = 0.01
tracks/0/type = "value"
tracks/0/path = NodePath("Pivot/Sprite:scale")
tracks/0/interp = 1
tracks/0/loop_wrap = true
tracks/0/imported = false
tracks/0/enabled = true
tracks/0/keys = {
"times": PoolRealArray( 0, 0.05, 0.1, 0.15, 0.2, 0.25 ),
"transitions": PoolRealArray( 1, 1, 1, 1, 1, 1 ),
"update": 0,
"values": [ Vector2( 1, 1 ), Vector2( 0.9, 1.1 ), Vector2( 1.1, 0.9 ), Vector2( 1.05, 0.95 ), Vector2( 0.95, 1.05 ), Vector2( 1, 1 ) ]
}

[sub_resource type="Animation" id=2]
resource_name = "walk_down"
length = 0.4
step = 0.01
tracks/0/type = "value"
tracks/0/path = NodePath("Pivot/Sprite:frame")
tracks/0/interp = 1
tracks/0/loop_wrap = true
tracks/0/imported = false
tracks/0/enabled = true
tracks/0/keys = {
"times": PoolRealArray( 0, 0.1, 0.2, 0.3, 0.4 ),
"transitions": PoolRealArray( 1, 1, 1, 1, 1 ),
"update": 1,
"values": [ 0, 1, 0, 3, 0 ]
}

[sub_resource type="Animation" id=3]
resource_name = "walk_horiz"
length = 0.4
step = 0.01
tracks/0/type = "value"
tracks/0/path = NodePath("Pivot/Sprite:frame")
tracks/0/interp = 1
tracks/0/loop_wrap = true
tracks/0/imported = false
tracks/0/enabled = true
tracks/0/keys = {
"times": PoolRealArray( 0, 0.1, 0.2, 0.3, 0.4 ),
"transitions": PoolRealArray( 1, 1, 1, 1, 1 ),
"update": 1,
"values": [ 4, 5, 6, 7, 4 ]
}

[sub_resource type="Animation" id=4]
resource_name = "walk_up"
length = 0.4
step = 0.01
tracks/0/type = "value"
tracks/0/path = NodePath("Pivot/Sprite:frame")
tracks/0/interp = 1
tracks/0/loop_wrap = true
tracks/0/imported = false
tracks/0/enabled = true
tracks/0/keys = {
"times": PoolRealArray( 0, 0.1, 0.2, 0.3, 0.4 ),
"transitions": PoolRealArray( 1, 1, 1, 1, 1 ),
"update": 1,
"values": [ 8, 9, 10, 11, 8 ]
}

[node name="Enemy" type="Node2D" groups=[
"actors",
]]
position = Vector2( 8, 8 )
script = ExtResource( 1 )
__meta__ = {
"_edit_group_": true
}

[node name="AnimationPlayer" type="AnimationPlayer" parent="."]
anims/bump = SubResource( 1 )
anims/walk_down = SubResource( 2 )
anims/walk_horiz = SubResource( 3 )
anims/walk_up = SubResource( 4 )

[node name="Pivot" type="Position2D" parent="."]

[node name="Sprite" type="Sprite" parent="Pivot"]
position = Vector2( 0, -8 )
texture = ExtResource( 2 )
hframes = 4
vframes = 3

[node name="Tween" type="Tween" parent="."]
